{
  "body": {
    "items": [
      {
        "created_at": "2026-05-25T18:31:37.714461",
        "description": "Entry-level ceramic mug for daily use",
        "id": 1,
        "name": "Starter Mug",
        "price": "12.50",
        "stock": 250,
        "updated_at": null
      },
      {
        "created_at": "2026-05-25T18:31:37.714467",
        "description": "Vacuum flask for commuters",
        "id": 2,
        "name": "Travel Flask",
        "price": "29.90",
        "stock": 140,
        "updated_at": null
      },
      {
        "created_at": "2026-05-25T18:31:37.714468",
        "description": "Hard floor protective chair mat",
        "id": 3,
        "name": "Office Chair Mat",
        "price": "64.00",
        "stock": 32,
        "updated_at": null
      },
      {
        "created_at": "2026-05-25T18:31:37.714469",
        "description": "Compact keyboard with rechargeable battery",
        "id": 4,
        "name": "Wireless Keyboard",
        "price": "79.99",
        "stock": 48,
        "updated_at": null
      },
      {
        "created_at": "2026-05-25T18:31:37.714470",
        "description": "Low-latency ergonomic mouse",
        "id": 5,
        "name": "Wireless Mouse",
        "price": "44.95",
        "stock": 75,
        "updated_at": null
      }
    ],
    "page": 1,
    "page_size": 5,
    "pages": 13,
    "total": 62
  },
  "headers": {
    "content-length": "906",
    "content-type": "application/json",
    "date": "Thu, 28 May 2026 08:16:42 GMT",
    "server": "uvicorn",
    "x-request-id": "467c3b17-439d-486b-852e-3567adf8c3f1",
    "x-trace-id": "467c3b17-439d-486b-852e-3567adf8c3f1"
  },
  "status_code": 200
}