{
  "body": {
    "items": [
      {
        "created_at": "2026-05-28T08:17:13.577844",
        "description": "Inserted by E2E test",
        "id": 73,
        "name": "page-beyond-9749ccae-1",
        "price": "10.00",
        "stock": 1,
        "updated_at": null
      }
    ],
    "page": 1,
    "page_size": 1,
    "pages": 2,
    "total": 2
  },
  "headers": {
    "content-length": "219",
    "content-type": "application/json",
    "date": "Thu, 28 May 2026 08:17:15 GMT",
    "server": "uvicorn",
    "x-request-id": "9a8fbeb9-88ff-4844-b421-487d57198b0a",
    "x-trace-id": "9a8fbeb9-88ff-4844-b421-487d57198b0a"
  },
  "status_code": 200
}